…
``` r
data("instacart")
```

The dataset contains 1384617 rows and 15 columns.

How many aisles, and which are most item from?

``` r
instacart %>% 
  count(aisle) %>% 
  arrange(desc(n))
```

    ## # A tibble: 134 x 2
    ##    aisle                              n
    ##    <chr>                          <int>
    ##  1 fresh vegetables              150609
    ##  2 fresh fruits                  150473
    ##  3 packaged vegetables fruits     78493
    ##  4 yogurt                         55240
    ##  5 packaged cheese                41699
    ##  6 water seltzer sparkling water  36617
    ##  7 milk                           32644
    ##  8 chips pretzels                 31269
    ##  9 soy lactosefree                26240
    ## 10 bread                          23635
    ## # ... with 124 more rows
…
ny_noaa = ny_noaa %>%  
  separate(date, c("year", "month", "day")) %>% 
  mutate(across(year:tmin,as.numeric),
         tmax = tmax / 10,
         tmin = tmin / 10)

ny_noaa %>% 
  group_by(snow) %>% 
  summarize(n_obs = n())
```

    ## `summarise()` ungrouping output (override with `.groups` argument)

    ## # A tibble: 282 x 2
    ##     snow   n_obs
    ##    <dbl>   <int>
    ##  1   -13       1
    ##  2     0 2008508
    ##  3     3    8790
    ##  4     5    9748
    ##  5     8    9962
    ##  6    10    5106
    ##  7    13   23095
    ##  8    15    3672
    ##  9    18    3226
    ## 10    20    4797
    ## # ... with 272 more rows
…
